[
    {
        "name": "Bulbasaur",
        "type": "Grass, Poison",
        "src": "https://assets.pokemon.com/assets/cms2/img/pokedex/full/001.png",
        "description": "Bulbasaur can be seen napping in bright sunlight. There is a seed on its back. By soaking up the sun’s rays, the seed grows progressively larger."
    }, {
        "name": "Ivysaur",
        "type": "Grass, Poison",
        "src": "https://assets.pokemon.com/assets/cms2/img/pokedex/full/002.png",
        "description": "To support its weight, Ivysaur’s legs and trunk grow thick and strong. If it starts spending more time lying in the sunlight, it’s a sign that the bud will bloom into a large flower soon."
    }, {
        "name": "Venusaur",
        "type": "Grass, Poison",
        "src": "https://assets.pokemon.com/assets/cms2/img/pokedex/full/003.png",
        "description": "There is a large flower on Venusaur’s back. The flower is said to take on vivid colors if it gets plenty of nutrition and sunlight. The flower’s aroma soothes the emotions of people."
    }, {
        "name": "Charmander",
        "type": "Fire",
        "src": "https://assets.pokemon.com/assets/cms2/img/pokedex/full/004.png",
        "description": "The flame that burns at the tip of its tail is an indication of its emotions. The flame wavers when Charmander is enjoying itself. If the Pokémon becomes enraged, the flame burns fiercely."
    }, {
        "name": "Charmeleon",
        "type": "Fire",
        "src": "https://assets.pokemon.com/assets/cms2/img/pokedex/full/005.png",
        "description": "Charmeleon mercilessly destroys its foes using its sharp claws. If it encounters a strong foe, it turns aggressive. In this excited state, the flame at the tip of its tail flares with a bluish white color."
    }, {
        "name": "Charizard",
        "type": "Fire, Flying",
        "src": "https://assets.pokemon.com/assets/cms2/img/pokedex/full/006.png",
        "description": "Charizard flies around the sky in search of powerful opponents. It breathes fire of such great heat that it melts anything. However, it never turns its fiery breath on any opponent weaker than itself."
    }, {
        "name": "Squirtle",
        "type": "Water",
        "src": "https://assets.pokemon.com/assets/cms2/img/pokedex/full/007.png",
        "description": "Squirtle’s shell is not merely used for protection. The shell’s rounded shape and the grooves on its surface help minimize resistance in water, enabling this Pokémon to swim at high speeds."
    }, {
        "name": "Wartortle",
        "type": "Water",
        "src": "https://assets.pokemon.com/assets/cms2/img/pokedex/full/008.png",
        "description": "Its tail is large and covered with a rich, thick fur. The tail becomes increasingly deeper in color as Wartortle ages. The scratches on its shell are evidence of this Pokémon’s toughness as a battler."
    }, {
        "name": "Blastoise",
        "type": "Water",
        "src": "https://assets.pokemon.com/assets/cms2/img/pokedex/full/009.png",
        "description": "Blastoise has water spouts that protrude from its shell. The water spouts are very accurate. They can shoot bullets of water with enough accuracy to strike empty cans from a distance of over 160 feet."
    }, {
        "name": "Caterpie",
        "type": "Bug",
        "src": "https://assets.pokemon.com/assets/cms2/img/pokedex/full/010.png",
        "description": "Caterpie has a voracious appetite. It can devour leaves bigger than its body right before your eyes. From its antenna, this Pokémon releases a terrifically strong odor."
    }, {
        "name": "Metapod",
        "type": "Bug",
        "src": "https://assets.pokemon.com/assets/cms2/img/pokedex/full/011.png",
        "description": "The shell covering this Pokémon’s body is as hard as an iron slab. Metapod does not move very much. It stays still because it is preparing its soft innards for evolution inside the hard shell."
    }, {
        "name": "Butterfree",
        "type": "Bug, Flying",
        "src": "https://assets.pokemon.com/assets/cms2/img/pokedex/full/012.png",
        "description": "Butterfree has a superior ability to search for delicious honey from flowers. It can even search out, extract, and carry honey from flowers that are blooming over six miles from its nest."
    }, {
        "name": "Weedle",
        "type": "Bug, Poison",
        "src": "https://assets.pokemon.com/assets/cms2/img/pokedex/full/013.png",
        "description": "Weedle has an extremely acute sense of smell. It is capable of distinguishing its favorite kinds of leaves from those it dislikes just by sniffing with its big red proboscis (nose)."
    }, {
        "name": "Kakuna",
        "type": "Bug, Poison",
        "src": "https://assets.pokemon.com/assets/cms2/img/pokedex/full/014.png",
        "description": "Kakuna remains virtually immobile as it clings to a tree. However, on the inside, it is extremely busy as it prepares for its coming evolution. This is evident from how hot the shell becomes to the touch."
    }, {
        "name": "Beedrill",
        "type": "Bug, Poison",
        "src": "https://assets.pokemon.com/assets/cms2/img/pokedex/full/015.png",
        "description": "Beedrill is extremely territorial. No one should ever approach its nest—this is for their own safety. If angered, they will attack in a furious swarm."
    }, {
        "name": "Pidgey",
        "type": "Normal, Flying",
        "src": "https://assets.pokemon.com/assets/cms2/img/pokedex/full/016.png",
        "description": "Pidgey has an extremely sharp sense of direction. It is capable of unerringly returning home to its nest, however far it may be removed from its familiar surroundings."
    }, {
        "name": "Pidgeotto",
        "type": "Normal, Flying",
        "src": "https://assets.pokemon.com/assets/cms2/img/pokedex/full/017.png",
        "description": "Pidgeotto claims a large area as its own territory. This Pokémon flies around, patrolling its living space. If its territory is violated, it shows no mercy in thoroughly punishing the foe with its sharp claws."
    }, {
        "name": "Pidgeot",
        "type": "Normal, Flying",
        "src": "https://assets.pokemon.com/assets/cms2/img/pokedex/full/018.png",
        "description": "This Pokémon has a dazzling plumage of beautifully glossy feathers. Many Trainers are captivated by the striking beauty of the feathers on its head, compelling them to choose Pidgeot as their Pokémon."
    }, {
        "name": "Rattata",
        "type": "Normal",
        "src": "https://assets.pokemon.com/assets/cms2/img/pokedex/full/019.png",
        "description": "Rattata is cautious in the extreme. Even while it is asleep, it constantly listens by moving its ears around. It is not picky about where it lives—it will make its nest anywhere."
    }, {
        "name": "Raticate",
        "type": "Normal",
        "src": "https://assets.pokemon.com/assets/cms2/img/pokedex/full/020.png",
        "description": "Raticate's sturdy fangs grow steadily. To keep them ground down, it gnaws on rocks and logs. It may even chew on the walls of houses."
    }, {
        "name": "Spearow",
        "type": "Normal, Flying",
        "src": "https://assets.pokemon.com/assets/cms2/img/pokedex/full/021.png",
        "description": "Spearow has a very loud cry that can be heard over half a mile away. If its high, keening cry is heard echoing all around, it is a sign that they are warning each other of danger."
    }, {
        "name": "Fearow",
        "type": "Normal, Flying",
        "src": "https://assets.pokemon.com/assets/cms2/img/pokedex/full/022.png",
        "description": "Fearow is recognized by its long neck and elongated beak. They are conveniently shaped for catching prey in soil or water. It deftly moves its long and skinny beak to pluck prey."
    }, {
        "name": "Ekans",
        "type": "Poison",
        "src": "https://assets.pokemon.com/assets/cms2/img/pokedex/full/023.png",
        "description": "Ekans curls itself up in a spiral while it rests. Assuming this position allows it to quickly respond to a threat from any direction with a glare from its upraised head."
    }, {
        "name": "Arbok",
        "type": "Poison",
        "src": "https://assets.pokemon.com/assets/cms2/img/pokedex/full/024.png",
        "description": "This Pokémon is terrifically strong in order to constrict things with its body. It can even flatten steel oil drums. Once Arbok wraps its body around its foe, escaping its crunching embrace is impossible."
    }, {
        "name": "Pikachu",
        "type": "Electric",
        "src": "https://assets.pokemon.com/assets/cms2/img/pokedex/full/025.png",
        "description": "Whenever Pikachu comes across something new, it blasts it with a jolt of electricity. If you come across a blackened berry, it's evidence that this Pokémon mistook the intensity of its charge."
    }, {
        "name": "Zeraora",
        "type": "Electric",
        "src": "https://assets.pokemon.com/assets/cms2/img/pokedex/full/807.png",
        "description": "It electrifies its claws and tears its opponents apart with them. Even if they dodge its attack, they'll be electrocuted by the flying sparks."
    }, {
        "name": "Meltan",
        "type": "Steel",
        "src": "https://assets.pokemon.com/assets/cms2/img/pokedex/full/808.png",
        "description": "It melts particles of iron and other metals found in the subsoil, so it can absorb them into its body of molten steel."
    }, {
        "name": "Melmetal",
        "type": "Steel",
        "src": "https://assets.pokemon.com/assets/cms2/img/pokedex/full/809.png",
        "description": "Revered long ago for its capacity to create iron from nothing, for some reason it has come back to life after 3,000 years."
    }
]
